<svg width="44" height="44" viewBox="0 0 44 44" fill="none" xmlns="http://www.w3.org/2000/svg">
<rect width="44" height="44" rx="22" fill="#EE8030"/>
<path fill-rule="evenodd" clip-rule="evenodd" d="M22 31V31C17.029 31 13 26.971 13 22V22C13 17.029 17.029 13 22 13V13C26.971 13 31 17.029 31 22V22C31 26.971 26.971 31 22 31Z" stroke="white" stroke-width="1.5" stroke-linecap="round" stroke-linejoin="round"/>
<path d="M26 22H18" stroke="white" stroke-width="1.5" stroke-linecap="round" stroke-linejoin="round"/>
<path d="M23 19L26 22L23 25" stroke="white" stroke-width="1.5" stroke-linecap="round" stroke-linejoin="round"/>
</svg>
