<svg width="48" height="48" viewBox="0 0 48 48" fill="none" xmlns="http://www.w3.org/2000/svg">
    <path fill-rule="evenodd" clip-rule="evenodd" d="M24 40.0001C19.906 36.2941 13.72 35.6401 8.888 38.0381C7.558 38.6961 6 37.7981 6 36.3141V13.6881C6 12.4741 6.55 11.3101 7.512 10.5701C12.49 6.7361 19.506 7.1921 24 11.9381C28.494 7.1921 35.51 6.7361 40.488 10.5721C41.45 11.3121 42 12.4761 42 13.6881V36.3121C42 37.7961 40.442 38.6961 39.112 38.0361C34.28 35.6401 28.094 36.2941 24 40.0001V40.0001Z" stroke="#52BD1F" stroke-width="2" stroke-linecap="round" stroke-linejoin="round"/>
    <path d="M24 40.0002V11.9402" stroke="#52BD1F" stroke-width="2" stroke-linecap="round" stroke-linejoin="round"/>
</svg>
