<svg width="32" height="32" viewBox="0 0 32 32" fill="none" xmlns="http://www.w3.org/2000/svg">
<path fill-rule="evenodd" clip-rule="evenodd" d="M4 9.06675V9.06675C4 9.86675 4.4 10.5334 5.06667 11.0667L13.0667 16.5334C14.9333 17.7334 17.2 17.7334 19.0667 16.5334L27.0667 11.2001C27.6 10.5334 28 9.86675 28 9.06675V9.06675C28 7.73341 26.9333 6.66675 25.6 6.66675H6.4C5.06667 6.66675 4 7.73341 4 9.06675Z" stroke="#4F4F4F" stroke-width="1.5" stroke-linecap="round" stroke-linejoin="round"/>
<path d="M4 9.3335V22.6668C4 24.1335 5.2 25.3335 6.66667 25.3335H25.3333C26.8 25.3335 28 24.1335 28 22.6668V9.3335" stroke="#4F4F4F" stroke-width="1.5" stroke-linecap="round" stroke-linejoin="round"/>
<path d="M4.784 24.5494L12.9093 16.4241" stroke="#4F4F4F" stroke-width="1.5" stroke-linecap="round" stroke-linejoin="round"/>
<path d="M19.1467 16.48L27.216 24.5493" stroke="#4F4F4F" stroke-width="1.5" stroke-linecap="round" stroke-linejoin="round"/>
</svg>
